{
    "author": "",
    "baseConstants": [],
    "baseVariables": {},
    "bkgOpacity": 0.20000000298023224,
    "contourLevelModifer": 0.5,
    "customConstants": [],
    "derivedVariables": {},
    "description": "Default settings for particle based datasets.",
    "errorRemovalOption": "NaN,Inf",
    "filters": {},
    "histOpacity": 1,
    "histograms": {},
    "histHeightRotation": 0.0,
    "isoRotationX": 180,
    "isoRotationY": 0,
    "lockValueRangeModifiers": true,
    "name": "base1",
    "normalizationMode": "local",
    "normalizationModifier": 0.5,
    "particles": [],
    "partitionModifer": 0.5,
    "phasePlotMode": "Trajectories",
    "phasePlots": {},
    "resolutionModifier": 0.10000000149011612,
    "samplingCamera": {
        "view": "[1.000000,0.000000,0.000000,-8.100000;0.000000,1.000000,0.000000,2.000000;0.000000,0.000000,1.000000,0.000000;0.000000,0.000000,0.000000,1.000000]",
        "zoom": 0.0070000000000000001
    },
    "scaledScreenResolutionX" : 1,
    "scaledScreenResolutionY" : 1,
    "selectedDistribution": "",
    "selectedFilter": "",
    "selectedParticleType": "",
    "selectedPhasePlot": "",
    "selectedTimePlot": "",
    "selectedTimeSeries": "",
    "selectedTimeStep": 0,
    "spatialScalingModifier": 0.5,
    "timePlotMode": "mean",
    "timePlotRegion": "all",
    "timePlots": {},
    "timeSeries": {},
    "type": "particle",
    "valueRangeModifierX": 1,
    "valueRangeModifierY": 1,
    "uiOffsetA": -1, 
    "uiOffsetB": -1, 
    "uiOffsetC": -1, 
    "uiOffsetD": -1, 
    "userDataDescription": ""
}
